{
    "compilerOptions": {
        "target": "es2017",
        "module": "commonjs",
        "esModuleInterop": true,
        "experimentalDecorators": true,
        "allowSyntheticDefaultImports": false,
        "baseUrl": "./",
        "paths": {
            "~/*": [
                "*"
            ]
        },
        "jsx": "react"
    }
}